<?xml version="1.0" encoding="UTF-8"?>
<svg id="Laag_1" data-name="Laag 1" xmlns="http://www.w3.org/2000/svg" viewBox="0 0 150 150">
  <defs>
    <style>
      .cls-1 {
        fill: none;
        stroke: #ccdae8;
        stroke-linecap: square;
        stroke-linejoin: round;
        stroke-width: 10px;
      }

      .cls-2 {
        fill: #fff;
      }

      .cls-2, .cls-3 {
        stroke-width: 0px;
      }

      .cls-3 {
        fill: #00a6d6;
      }
    </style>
  </defs>
  <line class="cls-1" x1="14.5" y1="109.5" x2="130.5" y2="109.5"/>
  <g>
    <path class="cls-3" d="m14.5,95.91h109.73c4.75,0,7.85-5.01,5.71-9.25-.7-1.39-1.82-2.93-3.5-4.62l-24.49-24.5c-3.87-3.87-9.12-6.05-14.59-6.05H14.5"/>
    <rect class="cls-2" x="62.47" y="62.29" width="17.44" height="11.78" transform="translate(142.39 136.36) rotate(180)"/>
    <rect class="cls-2" x="36.59" y="62.29" width="17.44" height="11.78" transform="translate(90.62 136.36) rotate(180)"/>
    <rect class="cls-2" x="14.5" y="62.29" width="13.69" height="11.78" transform="translate(42.69 136.36) rotate(180)"/>
  </g>
</svg>