<?xml version="1.0" encoding="UTF-8"?>
<svg id="Laag_1" data-name="Laag 1" xmlns="http://www.w3.org/2000/svg" viewBox="0 0 150 150">
  <defs>
    <style>
      .cls-1 {
        fill: #ccdae8;
      }

      .cls-1, .cls-2, .cls-3 {
        stroke-width: 0px;
      }

      .cls-2 {
        fill: #93aec9;
      }

      .cls-3 {
        fill: #00a6d6;
      }
    </style>
  </defs>
  <g>
    <polygon class="cls-3" points="61.09 99.13 52.65 126.52 92.44 123.78 61.09 99.13"/>
    <polygon class="cls-3" points="34.85 112.82 47.05 124.33 56.27 94.39 35.27 55.54 34.85 112.82"/>
    <polygon class="cls-3" points="113.15 27.03 68.01 13.56 36.08 44.42 50.86 71.75 60.97 90.46 79.49 84.64 117.51 72.7 113.15 27.03"/>
    <polygon class="cls-3" points="115.62 79.58 65.83 95.22 99.11 121.39 115.62 79.58"/>
  </g>
  <polygon class="cls-1" points="56.27 94.39 35.27 55.54 34.85 112.82 47.05 124.33 56.27 94.39"/>
  <g>
    <polygon class="cls-2" points="115.62 79.58 65.83 95.22 99.11 121.39 115.62 79.58"/>
    <polygon class="cls-2" points="52.65 126.52 92.44 123.78 61.09 99.13 52.65 126.52"/>
  </g>
</svg>