<?xml version="1.0" encoding="UTF-8"?>
<svg id="Laag_1" data-name="Laag 1" xmlns="http://www.w3.org/2000/svg" viewBox="0 0 150 150">
  <defs>
    <style>
      .cls-1 {
        fill: #93aec9;
        stroke-width: 8.26px;
      }

      .cls-1, .cls-2, .cls-3, .cls-4, .cls-5, .cls-6, .cls-7, .cls-8 {
        stroke-linejoin: round;
      }

      .cls-1, .cls-4 {
        stroke-linecap: square;
      }

      .cls-1, .cls-6 {
        stroke: #ccdae8;
      }

      .cls-2 {
        fill: #fff;
      }

      .cls-2, .cls-3, .cls-4 {
        stroke-width: 8px;
      }

      .cls-2, .cls-3, .cls-8 {
        stroke: #00a6d6;
      }

      .cls-3, .cls-8, .cls-9 {
        fill: #00a6d6;
      }

      .cls-4 {
        fill: none;
        stroke: #93aec9;
      }

      .cls-5 {
        fill: #0076c2;
        stroke: #0076c2;
        stroke-width: 7.8px;
      }

      .cls-6 {
        fill: #ccdae8;
      }

      .cls-6, .cls-7, .cls-8 {
        stroke-width: 10px;
      }

      .cls-7 {
        fill: #e2ebf6;
        stroke: #e2ebf6;
      }

      .cls-9 {
        stroke-width: 0px;
      }
    </style>
  </defs>
  <rect class="cls-7" x="90.5" y="33.5" width="43.7" height="28.41"/>
  <g>
    <line class="cls-5" x1="121.46" y1="35.87" x2="121.46" y2="58.5"/>
    <line class="cls-5" x1="110.14" y1="47.19" x2="132.77" y2="47.19"/>
  </g>
  <rect class="cls-6" x="32.04" y="101.5" width="13.08" height="29" transform="translate(77.17 232) rotate(180)"/>
  <rect class="cls-8" x="17.29" y="96.5" width="42.58" height="5" transform="translate(77.17 198) rotate(180)"/>
  <path class="cls-9" d="m63.5,29.36c-.23-9.08-10.52-16.42-23.15-16.42s-22.92,7.34-23.15,16.42h46.31Z"/>
  <line class="cls-1" x1="40.65" y1="57.71" x2="40.65" y2="46.31"/>
  <line class="cls-1" x1="13.35" y1="48.4" x2="21.4" y2="40.34"/>
  <line class="cls-1" x1="67.95" y1="48.4" x2="59.89" y2="40.34"/>
  <g>
    <polyline class="cls-4" points="102.21 111.19 69.5 68.91 54.5 81.91"/>
    <circle class="cls-3" cx="103.64" cy="117.63" r="15.86"/>
    <circle class="cls-2" cx="69.77" cy="69.96" r="9.43"/>
  </g>
</svg>