<?xml version="1.0" encoding="UTF-8"?>
<svg id="Laag_1" data-name="Laag 1" xmlns="http://www.w3.org/2000/svg" xmlns:xlink="http://www.w3.org/1999/xlink" viewBox="0 0 150 150">
  <defs>
    <style>
      .cls-1, .cls-2, .cls-3 {
        fill: none;
      }

      .cls-1, .cls-4, .cls-3, .cls-5, .cls-6 {
        stroke-linejoin: round;
      }

      .cls-1, .cls-5 {
        stroke: #00a6d6;
        stroke-width: 8px;
      }

      .cls-7 {
        clip-path: url(#clippath);
      }

      .cls-2 {
        stroke-width: 0px;
      }

      .cls-4 {
        stroke-width: 4.56px;
      }

      .cls-4, .cls-3 {
        stroke: #fff;
        stroke-linecap: square;
      }

      .cls-4, .cls-5 {
        fill: #fff;
      }

      .cls-3 {
        stroke-width: 4.52px;
      }

      .cls-6 {
        fill: #b8cbde;
        stroke: #b8cbde;
        stroke-width: 2px;
      }
    </style>
    <clipPath id="clippath">
      <circle class="cls-2" cx="74.5" cy="77.55" r="38.12"/>
    </clipPath>
  </defs>
  <path class="cls-1" d="m121.62,109.62c-10.3,15.17-27.68,25.13-47.4,25.13-31.62,0-57.25-25.63-57.25-57.25,0-7.92,1.61-15.47,4.52-22.33"/>
  <path class="cls-1" d="m25.7,47.11c10.12-16.13,28.07-26.86,48.52-26.86,31.62,0,57.25,25.63,57.25,57.25,0,8.19-1.72,15.97-4.81,23.01"/>
  <g class="cls-7">
    <circle class="cls-6" cx="74.5" cy="77.55" r="38.12"/>
    <g>
      <ellipse class="cls-3" cx="17.39" cy="77.34" rx="81.1" ry="59.87"/>
      <ellipse class="cls-3" cx="131.62" cy="77.76" rx="81.1" ry="59.87"/>
    </g>
    <line class="cls-4" x1="74.5" y1="32.57" x2="74.5" y2="127.3"/>
    <line class="cls-4" x1="27.14" y1="92.13" x2="121.87" y2="92.13"/>
    <line class="cls-4" x1="27.14" y1="63.98" x2="121.87" y2="63.98"/>
  </g>
  <circle class="cls-5" cx="117.39" cy="115.98" r="8.45"/>
  <circle class="cls-5" cx="31.06" cy="39.96" r="8.45"/>
</svg>