<?xml version="1.0" encoding="UTF-8"?>
<svg id="Laag_1" data-name="Laag 1" xmlns="http://www.w3.org/2000/svg" viewBox="0 0 150 150">
  <defs>
    <style>
      .cls-1 {
        stroke-width: 7.8px;
      }

      .cls-1, .cls-2 {
        fill: none;
        stroke: #fff;
        stroke-linejoin: round;
      }

      .cls-2 {
        stroke-width: 5px;
      }

      .cls-3 {
        fill: #ed6842;
      }

      .cls-3, .cls-4, .cls-5 {
        stroke-width: 0px;
      }

      .cls-4 {
        fill: #00a6d6;
      }

      .cls-5 {
        fill: #0076c2;
      }
    </style>
  </defs>
  <g>
    <path class="cls-4" d="m66.81,97.67c.01,8.18,6.67,14.83,14.85,14.83,5,0,9.46-2.46,12.15-6.3,2.69,3.84,7.15,6.3,12.15,6.3,8.18,0,14.84-6.65,14.85-14.83,6.7-2.21,11.35-8.49,11.35-15.74,0-3.63-1.15-7.06-3.29-9.91,2.11-2.62,3.29-5.89,3.29-9.3,0-6.95-4.82-12.84-11.36-14.42-.24-7.98-6.8-14.4-14.84-14.4-5,0-9.46,2.46-12.15,6.3-2.69-3.84-7.15-6.3-12.15-6.3-8.04,0-14.6,6.42-14.84,14.4-6.55,1.58-11.36,7.47-11.36,14.42,0,3.4,1.18,6.68,3.29,9.3-2.14,2.85-3.29,6.29-3.29,9.91,0,7.24,4.65,13.52,11.35,15.74Z"/>
    <line class="cls-2" x1="93.81" y1="50.26" x2="93.81" y2="98.05"/>
    <path class="cls-2" d="m109.53,81.38s-11.45-.54-13.71-9.23c-2.91-11.25,9.56-15.65,13.96-15.65"/>
    <path class="cls-2" d="m78.29,65.71s11.45.54,13.71,9.23c2.91,11.25-9.56,15.65-13.96,15.65"/>
  </g>
  <g>
    <path class="cls-3" d="m52.63,25.49c-2.97-3-7.08-4.87-11.63-4.87s-8.81,1.94-11.78,5.04c2.95-.82,7.18-1.64,12.24-1.64,4.7,0,8.47.71,11.17,1.46Z"/>
    <path class="cls-5" d="m55.45,30.77c-.05-.03-5.25-2.75-13.99-2.75s-15.05,2.82-15.09,2.84l-.64.31c-.69,1.81-1.08,3.76-1.08,5.81,0,9.02,7.34,16.36,16.36,16.36s16.36-7.34,16.36-16.36c0-2.02-.39-3.95-1.06-5.74l-.85-.47Z"/>
  </g>
  <g>
    <path class="cls-5" d="m35.94,86.75h0c1.71,0,3.09,1.38,3.09,3.09v47.57c0,1.71-1.38,3.09-3.09,3.09h-5.17c-1.71,0-3.09-1.38-3.09-3.09l-1.8-40.61c0-5.55,4.5-10.06,10.06-10.06Z"/>
    <path class="cls-5" d="m54.39,86.75h0c1.71,0,3.09,1.38,3.09,3.09l-2.51,47.57c0,1.71-1.38,3.09-3.09,3.09h-4.45c-1.71,0-3.09-1.38-3.09-3.09v-40.61c0-5.55,4.5-10.06,10.06-10.06Z"/>
    <path class="cls-5" d="m28.86,57.2h25.64c4.93,0,8.94,4.01,8.94,8.94v12.47c0,16.04-13.02,29.06-29.06,29.06h-5.52c-4.93,0-8.94-4.01-8.94-8.94v-32.6c0-4.93,4.01-8.94,8.94-8.94Z"/>
  </g>
  <path class="cls-4" d="m57.36,27.26l2.14-7.76s-7.47-2.97-18.04-2.97c-5.38,0-11.56.77-17.96,3.09l1.14,7.64s6.78-3.23,16.82-3.23,15.9,3.23,15.9,3.23Z"/>
  <line class="cls-1" x1="41.46" y1="69.87" x2="41.46" y2="92.5"/>
  <line class="cls-1" x1="30.14" y1="81.19" x2="52.77" y2="81.19"/>
</svg>