<?xml version="1.0" encoding="UTF-8"?>
<svg id="Laag_1" data-name="Laag 1" xmlns="http://www.w3.org/2000/svg" viewBox="0 0 150 150">
  <defs>
    <style>
      .cls-1 {
        fill: none;
        stroke: #fff;
        stroke-width: 7.8px;
      }

      .cls-1, .cls-2 {
        stroke-linejoin: round;
      }

      .cls-2 {
        fill: #e2ebf6;
        stroke: #ccdae8;
        stroke-width: 10px;
      }

      .cls-3 {
        fill: #00a6d6;
      }

      .cls-3, .cls-4 {
        stroke-width: 0px;
      }

      .cls-4 {
        fill: #0076c2;
      }
    </style>
  </defs>
  <path class="cls-3" d="m95.15,100.03c3.13-1.86,3.95-6.49,3.95-9.8s-.8-7.99-3.95-9.81c-13.65-7.91-52.52-5.91-54.22-5.85-.94.03-1.75.69-1.98,1.6-.23.92.18,1.87,1,2.34.1.06,10.15.91,10.32,10.66.21,10.31-9.77,15.29-10.19,15.49-.74.36-1.2,1.1-1.2,1.9,0,.14.01.29.04.43.2.95,1.02,1.64,1.99,1.68,1.7.06,36.57,1.84,54.23-8.64Z"/>
  <circle class="cls-3" cx="116.06" cy="89.12" r="13.02" transform="translate(-12.78 19.74) rotate(-9.22)"/>
  <rect class="cls-2" x="34.34" y="106.5" width="94.16" height="8"/>
  <line class="cls-1" x1="41.46" y1="69.87" x2="41.46" y2="92.5"/>
  <g>
    <path class="cls-4" d="m52.63,25.49c-2.97-3-7.08-4.87-11.63-4.87s-8.81,1.94-11.78,5.04c2.95-.82,7.18-1.64,12.24-1.64,4.7,0,8.47.71,11.17,1.46Z"/>
    <path class="cls-4" d="m55.45,30.77c-.05-.03-5.25-2.75-13.99-2.75s-15.05,2.82-15.09,2.84l-.64.31c-.69,1.81-1.08,3.76-1.08,5.81,0,9.02,7.34,16.36,16.36,16.36s16.36-7.34,16.36-16.36c0-2.02-.39-3.95-1.06-5.74l-.85-.47Z"/>
  </g>
  <g>
    <path class="cls-4" d="m35.94,86.75h0c1.71,0,3.09,1.38,3.09,3.09v47.57c0,1.71-1.38,3.09-3.09,3.09h-5.17c-1.71,0-3.09-1.38-3.09-3.09l-1.8-40.61c0-5.55,4.5-10.06,10.06-10.06Z"/>
    <path class="cls-4" d="m54.39,86.75h0c1.71,0,3.09,1.38,3.09,3.09l-2.51,47.57c0,1.71-1.38,3.09-3.09,3.09h-4.45c-1.71,0-3.09-1.38-3.09-3.09v-40.61c0-5.55,4.5-10.06,10.06-10.06Z"/>
    <path class="cls-4" d="m28.86,57.2h25.64c4.93,0,8.94,4.01,8.94,8.94v12.47c0,16.04-13.02,29.06-29.06,29.06h-5.52c-4.93,0-8.94-4.01-8.94-8.94v-32.6c0-4.93,4.01-8.94,8.94-8.94Z"/>
  </g>
  <line class="cls-1" x1="41.46" y1="69.87" x2="41.46" y2="92.5"/>
  <line class="cls-1" x1="30.14" y1="81.19" x2="52.77" y2="81.19"/>
  <path class="cls-3" d="m57.36,27.26l2.14-7.76s-7.47-2.97-18.04-2.97c-5.38,0-11.56.77-17.96,3.09l1.14,7.64s6.78-3.23,16.82-3.23,15.9,3.23,15.9,3.23Z"/>
</svg>